%YAML 1.1
%TAG !u! tag:unity3d.com,2011:
--- !u!1 &2448558572675110217
GameObject:
  m_ObjectHideFlags: 0
  m_CorrespondingSourceObject: {fileID: 0}
  m_PrefabInstance: {fileID: 0}
  m_PrefabAsset: {fileID: 0}
  serializedVersion: 6
  m_Component:
  - component: {fileID: 8843730906819139658}
  - component: {fileID: 3396759627412331922}
  - component: {fileID: 4622839030023849116}
  - component: {fileID: 652725899442174363}
  m_Layer: 0
  m_Name: a1b69a38738e745bb86ecf19a496cc33_0_shared
  m_TagString: Untagged
  m_Icon: {fileID: 0}
  m_NavMeshLayer: 0
  m_StaticEditorFlags: 0
  m_IsActive: 0
--- !u!4 &8843730906819139658
Transform:
  m_ObjectHideFlags: 0
  m_CorrespondingSourceObject: {fileID: 0}
  m_PrefabInstance: {fileID: 0}
  m_PrefabAsset: {fileID: 0}
  m_GameObject: {fileID: 2448558572675110217}
  m_LocalRotation: {x: 0, y: 0, z: 0, w: 1}
  m_LocalPosition: {x: 0, y: 0, z: 0}
  m_LocalScale: {x: 1, y: 1, z: 1}
  m_Children: []
  m_Father: {fileID: 0}
  m_RootOrder: 0
  m_LocalEulerAnglesHint: {x: 0, y: 0, z: 0}
--- !u!114 &3396759627412331922
MonoBehaviour:
  m_ObjectHideFlags: 0
  m_CorrespondingSourceObject: {fileID: 0}
  m_PrefabInstance: {fileID: 0}
  m_PrefabAsset: {fileID: 0}
  m_GameObject: {fileID: 2448558572675110217}
  m_Enabled: 1
  m_EditorHideFlags: 0
  m_Script: {fileID: 11500000, guid: 5bf10cdea1344482e91a4f2b58506b77, type: 3}
  m_Name: 
  m_EditorClassIdentifier: 
--- !u!114 &4622839030023849116
MonoBehaviour:
  m_ObjectHideFlags: 0
  m_CorrespondingSourceObject: {fileID: 0}
  m_PrefabInstance: {fileID: 0}
  m_PrefabAsset: {fileID: 0}
  m_GameObject: {fileID: 2448558572675110217}
  m_Enabled: 1
  m_EditorHideFlags: 0
  m_Script: {fileID: 11500000, guid: 877d1a5a381e84717a154501ecfa1940, type: 3}
  m_Name: 
  m_EditorClassIdentifier: 
  m_SerializedData:
    SceneGUID:
      Value:
        x: 2208918298
        y: 3041388599
        z: 2449270411
        w: 869034314
    Section: 0
--- !u!114 &652725899442174363
MonoBehaviour:
  m_ObjectHideFlags: 0
  m_CorrespondingSourceObject: {fileID: 0}
  m_PrefabInstance: {fileID: 0}
  m_PrefabAsset: {fileID: 0}
  m_GameObject: {fileID: 2448558572675110217}
  m_Enabled: 1
  m_EditorHideFlags: 0
  m_Script: {fileID: 11500000, guid: 9b0fd4427893a4a16ba0c267dfd00217, type: 3}
  m_Name: 
  m_EditorClassIdentifier: 
  m_SerializedData:
    mesh: {fileID: 10208, guid: 0000000000000000e000000000000000, type: 0}
    material: {fileID: 10303, guid: 0000000000000000f000000000000000, type: 0}
    subMesh: 0
    layer: 0
    castShadows: 1
    receiveShadows: 1
